*** Darwin 21x32 ***
Turn = 0.
  01234567890123456789012345678901
0 ................................
1 .h.........................f....
2 ......................f.........
3 ................................
4 .............................r..
5 .............h..................
6 ................................
7 ................................
8 ................................
9 ................................
0 ................................
1 ................................
2 ................................
3 ................................
4 ................r...............
5 ............................t...
6 ........................h.....t.
7 ................................
8 ................................
9 ..............................f.
0 ................................

Turn = 1.
  01234567890123456789012345678901
0 ................................
1 ...........................f....
2 .h....................f.........
3 .............................r..
4 .............h..................
5 ................................
6 ................................
7 ................................
8 ................................
9 ................................
0 ................................
1 ................................
2 ................................
3 ................r...............
4 ................................
5 ........................h...t...
6 ..............................t.
7 ................................
8 ................................
9 ..............................f.
0 ................................

Turn = 2.
  01234567890123456789012345678901
0 ................................
1 ...........................f....
2 ......................f......r..
3 .h...........h..................
4 ................................
5 ................................
6 ................................
7 ................................
8 ................................
9 ................................
0 ................................
1 ................................
2 ................r...............
3 ................................
4 ........................h.......
5 ............................t...
6 ..............................t.
7 ................................
8 ................................
9 ..............................f.
0 ................................

Turn = 3.
  01234567890123456789012345678901
0 ................................
1 ...........................f.r..
2 .............h........f.........
3 ................................
4 .h..............................
5 ................................
6 ................................
7 ................................
8 ................................
9 ................................
0 ................................
1 ................r...............
2 ................................
3 ........................h.......
4 ................................
5 ............................t...
6 ..............................t.
7 ................................
8 ................................
9 ..............................f.
0 ................................

Turn = 4.
  01234567890123456789012345678901
0 .............................r..
1 .............h.............f....
2 ......................f.........
3 ................................
4 ................................
5 .h..............................
6 ................................
7 ................................
8 ................................
9 ................................
0 ................r...............
1 ................................
2 ........................h.......
3 ................................
4 ................................
5 ............................t...
6 ..............................t.
7 ................................
8 ................................
9 ..............................f.
0 ................................

Turn = 5.
  01234567890123456789012345678901
0 .............h...............r..
1 ...........................f....
2 ......................f.........
3 ................................
4 ................................
5 ................................
6 .h..............................
7 ................................
8 ................................
9 ................r...............
0 ................................
1 ........................h.......
2 ................................
3 ................................
4 ................................
5 ............................t...
6 ..............................t.
7 ................................
8 ................................
9 ..............................f.
0 ................................

Turn = 6.
  01234567890123456789012345678901
0 .............h................r.
1 ...........................f....
2 ......................f.........
3 ................................
4 ................................
5 ................................
6 ................................
7 .h..............................
8 ................r...............
9 ................................
0 ........................h.......
1 ................................
2 ................................
3 ................................
4 ................................
5 ............................t...
6 ..............................t.
7 ................................
8 ................................
9 ..............................f.
0 ................................

Turn = 7.
  01234567890123456789012345678901
0 .............h.................r
1 ...........................f....
2 ......................f.........
3 ................................
4 ................................
5 ................................
6 ................................
7 ................r...............
8 .h..............................
9 ........................h.......
0 ................................
1 ................................
2 ................................
3 ................................
4 ................................
5 ............................t...
6 ..............................t.
7 ................................
8 ................................
9 ..............................f.
0 ................................

Turn = 8.
  01234567890123456789012345678901
0 .............h.................r
1 ...........................f....
2 ......................f.........
3 ................................
4 ................................
5 ................................
6 ................r...............
7 ................................
8 ........................h.......
9 .h..............................
0 ................................
1 ................................
2 ................................
3 ................................
4 ................................
5 ............................t...
6 ..............................t.
7 ................................
8 ................................
9 ..............................f.
0 ................................

Turn = 9.
  01234567890123456789012345678901
0 .............h.................r
1 ...........................f....
2 ......................f.........
3 ................................
4 ................................
5 ................r...............
6 ................................
7 ........................h.......
8 ................................
9 ................................
0 .h..............................
1 ................................
2 ................................
3 ................................
4 ................................
5 ............................t...
6 ..............................t.
7 ................................
8 ................................
9 ..............................f.
0 ................................

Turn = 10.
  01234567890123456789012345678901
0 .............h.................r
1 ...........................f....
2 ......................f.........
3 ................................
4 ................r...............
5 ................................
6 ........................h.......
7 ................................
8 ................................
9 ................................
0 ................................
1 .h..............................
2 ................................
3 ................................
4 ................................
5 ............................t...
6 ..............................t.
7 ................................
8 ................................
9 ..............................f.
0 ................................

Turn = 11.
  01234567890123456789012345678901
0 .............h..................
1 ...........................f...r
2 ......................f.........
3 ................r...............
4 ................................
5 ........................h.......
6 ................................
7 ................................
8 ................................
9 ................................
0 ................................
1 ................................
2 .h..............................
3 ................................
4 ................................
5 ............................t...
6 ..............................t.
7 ................................
8 ................................
9 ..............................f.
0 ................................

Turn = 12.
  01234567890123456789012345678901
0 .............h..................
1 ...........................f....
2 ................r.....f........r
3 ................................
4 ........................h.......
5 ................................
6 ................................
7 ................................
8 ................................
9 ................................
0 ................................
1 ................................
2 ................................
3 .h..............................
4 ................................
5 ............................t...
6 ..............................t.
7 ................................
8 ................................
9 ..............................f.
0 ................................

Turn = 13.
  01234567890123456789012345678901
0 .............h..................
1 ................r..........f....
2 ......................f.........
3 ........................h......r
4 ................................
5 ................................
6 ................................
7 ................................
8 ................................
9 ................................
0 ................................
1 ................................
2 ................................
3 ................................
4 .h..............................
5 ............................t...
6 ..............................t.
7 ................................
8 ................................
9 ..............................f.
0 ................................

*** Darwin 32x32 ***
Turn = 0.
  01234567890123456789012345678901
0 ................................
1 ................................
2 ................................
3 ................................
4 ............t...................
5 ................r...............
6 ................................
7 .................h..............
8 ................................
9 ................................
0 .........t......................
1 ................................
2 ................................
3 ................................
4 ................................
5 ................................
6 ..........................f.....
7 ................................
8 ..............t.................
9 ................................
0 ................................
1 ........t.............f.........
2 ................................
3 .........................t..t...
4 ................................
5 ................................
6 ................................
7 ................................
8 ...........h................h...
9 ......r.........................
0 .....................h..........
1 ................................

Turn = 2.
  01234567890123456789012345678901
0 ................................
1 ................................
2 ................................
3 ................r...............
4 ............t...................
5 ................................
6 ................................
7 ...............h................
8 ................................
9 ................................
0 .........t......................
1 ................................
2 ................................
3 ................................
4 ................................
5 ................................
6 ..........................f.....
7 ................................
8 ..............t.................
9 ................................
0 ................................
1 ........t.............f.........
2 ................................
3 .........................t..t...
4 ................................
5 ................................
6 ................................
7 ......r.........................
8 ..............................h.
9 ................................
0 ...........h...........h........
1 ................................

Turn = 4.
  01234567890123456789012345678901
0 ................................
1 ................r...............
2 ................................
3 ................................
4 ............t...................
5 ................................
6 ................................
7 .............h..................
8 ................................
9 ................................
0 .........t......................
1 ................................
2 ................................
3 ................................
4 ................................
5 ................................
6 ..........................f.....
7 ................................
8 ..............t.................
9 ................................
0 ................................
1 ........t.............f.........
2 ................................
3 .........................t..t...
4 ................................
5 ......r.........................
6 ................................
7 ................................
8 ...............................h
9 ................................
0 .........................h......
1 ...........h....................

*** Darwin 23x30 ***
Turn = 0.
  012345678901234567890123456789
0 ..............................
1 ...r...............h..........
2 .f...........................f
3 .......t.......t..............
4 ..............................
5 ..............................
6 .f....t.......................
7 ..............................
8 ..............................
9 ..............................
0 ..............................
1 ...........r..................
2 ..............................
3 ..............................
4 ......................f.h.....
5 ..............................
6 ..............................
7 ..............................
8 ..............................
9 .................h............
0 ..............................
1 .f....................r.......
2 ..............................

Turn = 2.
  012345678901234567890123456789
0 ..............................
1 .....................h........
2 .f...........................f
3 ...r...t.......t..............
4 ..............................
5 ..............................
6 .f....t.......................
7 ..............................
8 ..............................
9 ..............................
0 ..............................
1 .........r....................
2 ..............................
3 ..............................
4 ......................f.......
5 ..............................
6 ........................h.....
7 ..............................
8 ..............................
9 ..............................
0 ..............................
1 .f...............h..r.........
2 ..............................

Turn = 4.
  012345678901234567890123456789
0 ..............................
1 .......................h......
2 .f...........................f
3 .......t.......t..............
4 ..............................
5 ...r..........................
6 .f....t.......................
7 ..............................
8 ..............................
9 ..............................
0 ..............................
1 .......r......................
2 ..............................
3 ..............................
4 ......................f.......
5 ..............................
6 ..............................
7 ..............................
8 ........................h.....
9 ..............................
0 ..............................
1 .f................r...........
2 .................h............

Turn = 6.
  012345678901234567890123456789
0 ..............................
1 .........................h....
2 .f...........................f
3 .......t.......t..............
4 ..............................
5 ..............................
6 .f....t.......................
7 ...r..........................
8 ..............................
9 ..............................
0 ..............................
1 .....r........................
2 ..............................
3 ..............................
4 ......................f.......
5 ..............................
6 ..............................
7 ..............................
8 ..............................
9 ..............................
0 ........................h.....
1 .f..............r.............
2 .................h............

*** Darwin 14x19 ***
Turn = 0.
  0123456789012345678
0 ...................
1 ...................
2 ...................
3 ..........f........
4 ...................
5 ...................
6 ...................
7 ...................
8 .........t.........
9 ...................
0 .......r...........
1 ................h..
2 ...................
3 ...................

Turn = 5.
  0123456789012345678
0 ...................
1 ...................
2 ...................
3 ..........f........
4 ...................
5 ...................
6 ................h..
7 ...................
8 .........t.........
9 ...................
0 ...................
1 ...................
2 ...................
3 ......r............

Turn = 10.
  0123456789012345678
0 ...................
1 ................h..
2 ...................
3 ..........f........
4 ...................
5 ...................
6 ...................
7 ...................
8 .........t.........
9 ...................
0 ...................
1 ...................
2 ...................
3 .r.................

*** Darwin 18x22 ***
Turn = 0.
  0123456789012345678901
0 ......r...............
1 ......................
2 ......................
3 .......h............r.
4 ......................
5 ......................
6 .....r................
7 ......................
8 .........r.......r....
9 ....h...............r.
0 .....................r
1 ......................
2 ......................
3 ......................
4 .....................t
5 ......................
6 ......................
7 ..................f...

Turn = 3.
  0123456789012345678901
0 ........r.............
1 ......................
2 .....................r
3 ..........h...........
4 ......................
5 .........r............
6 ........r.............
7 ......................
8 ....................r.
9 .h....................
0 ......................
1 ......................
2 ....................r.
3 .....................r
4 .....................t
5 ......................
6 ......................
7 ..................f...

*** Darwin 20x29 ***
Turn = 0.
  01234567890123456789012345678
0 .............................
1 .............................
2 ...........................h.
3 .............................
4 .............................
5 .............................
6 ..r..........................
7 ..............h..............
8 .............................
9 .............................
0 .............................
1 .............................
2 .............................
3 .............................
4 ........h....................
5 .............................
6 .............................
7 ...........h.................
8 ...............h.............
9 ..f..........f...............

Turn = 4.
  01234567890123456789012345678
0 .............................
1 .............................
2 .......................h.....
3 .............................
4 .............................
5 r............................
6 .............................
7 ..........h..................
8 .............................
9 .............................
0 ........h....................
1 .............................
2 .............................
3 .............................
4 .............................
5 .............................
6 .............................
7 .......h.....................
8 ...................h.........
9 ..f..........f...............

Turn = 8.
  01234567890123456789012345678
0 .............................
1 r............................
2 ...................h.........
3 .............................
4 .............................
5 .............................
6 ........h....................
7 ......h......................
8 .............................
9 .............................
0 .............................
1 .............................
2 .............................
3 .............................
4 .............................
5 .............................
6 .............................
7 ...h.........................
8 .......................h.....
9 ..f..........f...............

Turn = 12.
  01234567890123456789012345678
0 r............................
1 .............................
2 ........h......h.............
3 .............................
4 .............................
5 .............................
6 .............................
7 ..h..........................
8 .............................
9 .............................
0 .............................
1 .............................
2 .............................
3 .............................
4 .............................
5 .............................
6 .............................
7 h............................
8 ...........................h.
9 ..f..........f...............

*** Darwin 6x22 ***
Turn = 0.
  0123456789012345678901
0 .......f..............
1 ................f.....
2 ..t...................
3 ......................
4 ......................
5 ......................

Turn = 1.
  0123456789012345678901
0 .......f..............
1 ................f.....
2 ..t...................
3 ......................
4 ......................
5 ......................

Turn = 2.
  0123456789012345678901
0 .......f..............
1 ................f.....
2 ..t...................
3 ......................
4 ......................
5 ......................

Turn = 3.
  0123456789012345678901
0 .......f..............
1 ................f.....
2 ..t...................
3 ......................
4 ......................
5 ......................

Turn = 4.
  0123456789012345678901
0 .......f..............
1 ................f.....
2 ..t...................
3 ......................
4 ......................
5 ......................

Turn = 5.
  0123456789012345678901
0 .......f..............
1 ................f.....
2 ..t...................
3 ......................
4 ......................
5 ......................

*** Darwin 13x24 ***
Turn = 0.
  012345678901234567890123
0 ........................
1 ......h................f
2 ........................
3 ...r.........r........t.
4 ........................
5 .............t..........
6 ........................
7 r..r......h.......h.....
8 .................t......
9 ........................
0 ........................
1 .....................h..
2 ...............r....f...

*** Darwin 35x34 ***
Turn = 0.
  0123456789012345678901234567890123
0 ..................................
1 ..................................
2 ..................................
3 ..................................
4 ..............................r...
5 ..................................
6 ..................................
7 ..f...............................
8 ..................................
9 ..........................t..f....
0 ..................................
1 .................................h
2 ........r.........................
3 ..................................
4 ..................................
5 ..................................
6 ..................................
7 ..................................
8 ..................................
9 ......................h...........
0 .........................h........
1 ..................................
2 t.................................
3 ..................................
4 .............r....................
5 ..................................
6 ..................................
7 ..................................
8 .............f....................
9 .....f............................
0 ..................................
1 ..................................
2 ..................................
3 ..................................
4 ..................................

Turn = 1.
  0123456789012345678901234567890123
0 ..................................
1 ..................................
2 ..................................
3 ..............................r...
4 ..................................
5 ..................................
6 ..................................
7 ..f...............................
8 ..................................
9 ..........................t..f....
0 ..................................
1 ..................................
2 .........r.......................h
3 ..................................
4 ..................................
5 ..................................
6 ..................................
7 ..................................
8 ..................................
9 .....................h............
0 ..................................
1 .........................h........
2 t.................................
3 ..................................
4 ............r.....................
5 ..................................
6 ..................................
7 ..................................
8 .............f....................
9 .....f............................
0 ..................................
1 ..................................
2 ..................................
3 ..................................
4 ..................................

Turn = 2.
  0123456789012345678901234567890123
0 ..................................
1 ..................................
2 ..............................r...
3 ..................................
4 ..................................
5 ..................................
6 ..................................
7 ..f...............................
8 ..................................
9 ..........................t..f....
0 ..................................
1 ..................................
2 ..........r.......................
3 .................................h
4 ..................................
5 ..................................
6 ..................................
7 ..................................
8 ..................................
9 ....................h.............
0 ..................................
1 ..................................
2 t........................h........
3 ..................................
4 ...........r......................
5 ..................................
6 ..................................
7 ..................................
8 .............f....................
9 .....f............................
0 ..................................
1 ..................................
2 ..................................
3 ..................................
4 ..................................

Turn = 3.
  0123456789012345678901234567890123
0 ..................................
1 ..............................r...
2 ..................................
3 ..................................
4 ..................................
5 ..................................
6 ..................................
7 ..f...............................
8 ..................................
9 ..........................t..f....
0 ..................................
1 ..................................
2 ...........r......................
3 ..................................
4 .................................h
5 ..................................
6 ..................................
7 ..................................
8 ..................................
9 ...................h..............
0 ..................................
1 ..................................
2 t.................................
3 .........................h........
4 ..........r.......................
5 ..................................
6 ..................................
7 ..................................
8 .............f....................
9 .....f............................
0 ..................................
1 ..................................
2 ..................................
3 ..................................
4 ..................................

Turn = 4.
  0123456789012345678901234567890123
0 ..............................r...
1 ..................................
2 ..................................
3 ..................................
4 ..................................
5 ..................................
6 ..................................
7 ..f...............................
8 ..................................
9 ..........................t..f....
0 ..................................
1 ..................................
2 ............r.....................
3 ..................................
4 ..................................
5 .................................h
6 ..................................
7 ..................................
8 ..................................
9 ..................h...............
0 ..................................
1 ..................................
2 t.................................
3 ..................................
4 .........r...............h........
5 ..................................
6 ..................................
7 ..................................
8 .............f....................
9 .....f............................
0 ..................................
1 ..................................
2 ..................................
3 ..................................
4 ..................................

Turn = 5.
  0123456789012345678901234567890123
0 ..............................r...
1 ..................................
2 ..................................
3 ..................................
4 ..................................
5 ..................................
6 ..................................
7 ..f...............................
8 ..................................
9 ..........................t..f....
0 ..................................
1 ..................................
2 .............r....................
3 ..................................
4 ..................................
5 ..................................
6 .................................h
7 ..................................
8 ..................................
9 .................h................
0 ..................................
1 ..................................
2 t.................................
3 ..................................
4 ........r.........................
5 .........................h........
6 ..................................
7 ..................................
8 .............f....................
9 .....f............................
0 ..................................
1 ..................................
2 ..................................
3 ..................................
4 ..................................

Turn = 6.
  0123456789012345678901234567890123
0 ...............................r..
1 ..................................
2 ..................................
3 ..................................
4 ..................................
5 ..................................
6 ..................................
7 ..f...............................
8 ..................................
9 ..........................t..f....
0 ..................................
1 ..................................
2 ..............r...................
3 ..................................
4 ..................................
5 ..................................
6 ..................................
7 .................................h
8 ..................................
9 ................h.................
0 ..................................
1 ..................................
2 t.................................
3 ..................................
4 .......r..........................
5 ..................................
6 .........................h........
7 ..................................
8 .............f....................
9 .....f............................
0 ..................................
1 ..................................
2 ..................................
3 ..................................
4 ..................................

*** Darwin 31x29 ***
Turn = 0.
  01234567890123456789012345678
0 .............................
1 ...........r.................
2 .......t.....................
3 .............................
4 .............................
5 .............................
6 ...............h.............
7 .............................
8 ...........f.................
9 .............................
0 .............................
1 ........f....................
2 .....................f.......
3 .............................
4 .............................
5 .............................
6 .............................
7 .............................
8 ........................f....
9 .............................
0 .............................
1 .......h.....................
2 h............................
3 .............................
4 ..........................f.r
5 .............................
6 .............................
7 .............................
8 .............................
9 .............................
0 ..........h..................

Turn = 5.
  01234567890123456789012345678
0 ..............r..............
1 ...............h.............
2 .......t.....................
3 .............................
4 .............................
5 .............................
6 .............................
7 .............................
8 ...........f.................
9 .............................
0 .............................
1 ........f....................
2 .....................f.......
3 .............................
4 .............................
5 .............................
6 .......h.....................
7 .............................
8 ........................f....
9 ............................r
0 .............................
1 .............................
2 .....h.......................
3 .............................
4 ..........................f..
5 .............................
6 .............................
7 .............................
8 .............................
9 .............................
0 ...............h.............

Turn = 10.
  01234567890123456789012345678
0 ...............h...r.........
1 .............................
2 .......t.....................
3 .............................
4 .............................
5 .............................
6 .............................
7 .............................
8 ...........f.................
9 .............................
0 .............................
1 .......hf....................
2 .....................f.......
3 .............................
4 ............................r
5 .............................
6 .............................
7 .............................
8 ........................f....
9 .............................
0 .............................
1 .............................
2 ..........h..................
3 .............................
4 ..........................f..
5 .............................
6 .............................
7 .............................
8 .............................
9 .............................
0 ....................h........

*** Darwin 19x5 ***
Turn = 0.
  01234
0 ...t.
1 h....
2 ....r
3 .....
4 ..h..
5 ....r
6 r....
7 ....t
8 .....
9 .....
0 .....
1 r.r..
2 h....
3 .....
4 .....
5 .....
6 ....h
7 .....
8 .....

*** Darwin 21x35 ***
Turn = 0.
  01234567890123456789012345678901234
0 ..t................................
1 ...................................
2 r..................................
3 ...........f.......................
4 ........................r..........
5 .........................t.........
6 ...................................
7 ...................................
8 ...................................
9 .............................r.....
0 ...................................
1 ...................................
2 ...................................
3 ...................................
4 ...................................
5 ...................................
6 ...................................
7 ....h..............................
8 ...................................
9 ...................................
0 ...................................

Turn = 4.
  01234567890123456789012345678901234
0 ..t................................
1 ...................................
2 ...................................
3 ...........f.......................
4 ....................r..............
5 .........................t.........
6 r..................................
7 ...................................
8 ...................................
9 .........................r.........
0 ...................................
1 ...................................
2 ...................................
3 ...................................
4 ...................................
5 ...................................
6 ...................................
7 ........h..........................
8 ...................................
9 ...................................
0 ...................................

Turn = 8.
  01234567890123456789012345678901234
0 ..t................................
1 ...................................
2 ...................................
3 ...........f.......................
4 ................r..................
5 .........................t.........
6 ...................................
7 ...................................
8 ...................................
9 .....................r.............
0 r..................................
1 ...................................
2 ...................................
3 ...................................
4 ...................................
5 ...................................
6 ...................................
7 ............h......................
8 ...................................
9 ...................................
0 ...................................

*** Darwin 35x8 ***
Turn = 0.
  01234567
0 ........
1 ......h.
2 ........
3 .h......
4 ........
5 ........
6 ........
7 ........
8 ........
9 ...h....
0 ........
1 ........
2 ........
3 ........
4 ........
5 .......f
6 ........
7 ........
8 ........
9 ........
0 ........
1 ........
2 .......t
3 ........
4 ....t...
5 f.......
6 ........
7 ........
8 ........
9 ........
0 .......f
1 ..fr....
2 ........
3 .....h.f
4 .f......

Turn = 1.
  01234567
0 ........
1 .......h
2 .h......
3 ........
4 ........
5 ........
6 ........
7 ........
8 ........
9 ..h.....
0 ........
1 ........
2 ........
3 ........
4 ........
5 .......f
6 ........
7 ........
8 ........
9 ........
0 ........
1 ........
2 .......t
3 ........
4 ....t...
5 f.......
6 ........
7 ........
8 ........
9 ........
0 .......f
1 ..f.....
2 ...r....
3 ......hf
4 .f......

Turn = 2.
  01234567
0 ........
1 .h.....h
2 ........
3 ........
4 ........
5 ........
6 ........
7 ........
8 ........
9 .h......
0 ........
1 ........
2 ........
3 ........
4 ........
5 .......f
6 ........
7 ........
8 ........
9 ........
0 ........
1 ........
2 .......t
3 ........
4 ....t...
5 f.......
6 ........
7 ........
8 ........
9 ........
0 .......f
1 ..f.....
2 ........
3 ...r..hf
4 .f......

Turn = 3.
  01234567
0 .h......
1 .......h
2 ........
3 ........
4 ........
5 ........
6 ........
7 ........
8 ........
9 h.......
0 ........
1 ........
2 ........
3 ........
4 ........
5 .......f
6 ........
7 ........
8 ........
9 ........
0 ........
1 ........
2 .......t
3 ........
4 ....t...
5 f.......
6 ........
7 ........
8 ........
9 ........
0 .......f
1 ..f.....
2 ........
3 ......hf
4 .f.r....

Turn = 4.
  01234567
0 .h......
1 .......h
2 ........
3 ........
4 ........
5 ........
6 ........
7 ........
8 ........
9 h.......
0 ........
1 ........
2 ........
3 ........
4 ........
5 .......f
6 ........
7 ........
8 ........
9 ........
0 ........
1 ........
2 .......t
3 ........
4 ....t...
5 f.......
6 ........
7 ........
8 ........
9 ........
0 .......f
1 ..f.....
2 ........
3 ......hf
4 .f.r....

Turn = 5.
  01234567
0 .h......
1 .......h
2 ........
3 ........
4 ........
5 ........
6 ........
7 ........
8 ........
9 h.......
0 ........
1 ........
2 ........
3 ........
4 ........
5 .......f
6 ........
7 ........
8 ........
9 ........
0 ........
1 ........
2 .......t
3 ........
4 ....t...
5 f.......
6 ........
7 ........
8 ........
9 ........
0 .......f
1 ..f.....
2 ........
3 ......hf
4 .fr.....

Turn = 6.
  01234567
0 .h......
1 .......h
2 ........
3 ........
4 ........
5 ........
6 ........
7 ........
8 ........
9 h.......
0 ........
1 ........
2 ........
3 ........
4 ........
5 .......f
6 ........
7 ........
8 ........
9 ........
0 ........
1 ........
2 .......t
3 ........
4 ....t...
5 f.......
6 ........
7 ........
8 ........
9 ........
0 .......f
1 ..f.....
2 ........
3 ......hf
4 .rr.....

Turn = 7.
  01234567
0 .h......
1 .......h
2 ........
3 ........
4 ........
5 ........
6 ........
7 ........
8 ........
9 h.......
0 ........
1 ........
2 ........
3 ........
4 ........
5 .......f
6 ........
7 ........
8 ........
9 ........
0 ........
1 ........
2 .......t
3 ........
4 ....t...
5 f.......
6 ........
7 ........
8 ........
9 ........
0 .......f
1 ..f.....
2 ........
3 ......hf
4 .rr.....

Turn = 8.
  01234567
0 .h......
1 .......h
2 ........
3 ........
4 ........
5 ........
6 ........
7 ........
8 ........
9 h.......
0 ........
1 ........
2 ........
3 ........
4 ........
5 .......f
6 ........
7 ........
8 ........
9 ........
0 ........
1 ........
2 .......t
3 ........
4 ....t...
5 f.......
6 ........
7 ........
8 ........
9 ........
0 .......f
1 ..f.....
2 ........
3 .rr...hf
4 ........

Turn = 9.
  01234567
0 .h......
1 .......h
2 ........
3 ........
4 ........
5 ........
6 ........
7 ........
8 ........
9 h.......
0 ........
1 ........
2 ........
3 ........
4 ........
5 .......f
6 ........
7 ........
8 ........
9 ........
0 ........
1 ........
2 .......t
3 ........
4 ....t...
5 f.......
6 ........
7 ........
8 ........
9 ........
0 .......f
1 ..f.....
2 .rr.....
3 ......hf
4 ........

Turn = 10.
  01234567
0 .h......
1 .......h
2 ........
3 ........
4 ........
5 ........
6 ........
7 ........
8 ........
9 h.......
0 ........
1 ........
2 ........
3 ........
4 ........
5 .......f
6 ........
7 ........
8 ........
9 ........
0 ........
1 ........
2 .......t
3 ........
4 ....t...
5 f.......
6 ........
7 ........
8 ........
9 ........
0 .......f
1 .rr.....
2 ..r.....
3 ......hf
4 ........

Turn = 11.
  01234567
0 .h......
1 .......h
2 ........
3 ........
4 ........
5 ........
6 ........
7 ........
8 ........
9 h.......
0 ........
1 ........
2 ........
3 ........
4 ........
5 .......f
6 ........
7 ........
8 ........
9 ........
0 ........
1 ........
2 .......t
3 ........
4 ....t...
5 f.......
6 ........
7 ........
8 ........
9 ........
0 .r.....f
1 .rr.....
2 ........
3 ......hf
4 ........

Turn = 12.
  01234567
0 .h......
1 .......h
2 ........
3 ........
4 ........
5 ........
6 ........
7 ........
8 ........
9 h.......
0 ........
1 ........
2 ........
3 ........
4 ........
5 .......f
6 ........
7 ........
8 ........
9 ........
0 ........
1 ........
2 .......t
3 ........
4 ....t...
5 f.......
6 ........
7 ........
8 ........
9 .r......
0 ..r....f
1 r.......
2 ........
3 ......hf
4 ........

*** Darwin 10x31 ***
Turn = 0.
  0123456789012345678901234567890
0 ...............................
1 ...............................
2 ...............................
3 ..............................f
4 .......f..........t............
5 ...f...........................
6 ...............................
7 ....................t..........
8 r..............................
9 .tf............................

Turn = 3.
  0123456789012345678901234567890
0 ...............................
1 ...............................
2 ...............................
3 ..............................f
4 .......f..........t............
5 ...f...........................
6 r..............................
7 ....................t..........
8 ...............................
9 .tt............................

Turn = 6.
  0123456789012345678901234567890
0 ...............................
1 ...............................
2 ...............................
3 r.............................f
4 .......f..........t............
5 ...f...........................
6 ...............................
7 ....................t..........
8 ...............................
9 .tt............................

*** Darwin 15x13 ***
Turn = 0.
  0123456789012
0 .............
1 .............
2 .............
3 .............
4 .............
5 .............
6 .............
7 .............
8 .............
9 .............
0 ..f..r....f..
1 ..........r..
2 .............
3 .............
4 ...........h.

Turn = 4.
  0123456789012
0 .............
1 .............
2 .............
3 .............
4 .............
5 .............
6 .............
7 .............
8 .............
9 .............
0 ..f......rfh.
1 ......r......
2 .............
3 .............
4 .............

*** Darwin 8x31 ***
Turn = 0.
  0123456789012345678901234567890
0 ..r............................
1 ...............................
2 ..................h............
3 .....h.........................
4 ...............................
5 ..f............................
6 ...............................
7 .................h.......h.....

Turn = 2.
  0123456789012345678901234567890
0 ...............................
1 ...............................
2 ..r.................h..........
3 .......h.......................
4 ...............................
5 ..f............................
6 ...............................
7 ...................h...h.......

Turn = 4.
  0123456789012345678901234567890
0 ...............................
1 ...............................
2 ......................h........
3 .........h.....................
4 ..r............................
5 ..f............................
6 ...............................
7 .....................hh........

*** Darwin 32x20 ***
Turn = 0.
  01234567890123456789
0 .......h............
1 ....................
2 ....................
3 ....................
4 ....................
5 ....................
6 ....................
7 f...................
8 .............t......
9 ....................
0 ......f.............
1 ....................
2 ....................
3 ....................
4 ....................
5 ....................
6 ....................
7 ....................
8 ....................
9 ....................
0 ....................
1 ....................
2 ....................
3 ....................
4 ....................
5 ....................
6 ....................
7 ....................
8 ....................
9 ....................
0 ....................
1 ....................

Turn = 3.
  01234567890123456789
0 .......h............
1 ....................
2 ....................
3 ....................
4 ....................
5 ....................
6 ....................
7 f...................
8 .............t......
9 ....................
0 ......f.............
1 ....................
2 ....................
3 ....................
4 ....................
5 ....................
6 ....................
7 ....................
8 ....................
9 ....................
0 ....................
1 ....................
2 ....................
3 ....................
4 ....................
5 ....................
6 ....................
7 ....................
8 ....................
9 ....................
0 ....................
1 ....................

Turn = 6.
  01234567890123456789
0 .......h............
1 ....................
2 ....................
3 ....................
4 ....................
5 ....................
6 ....................
7 f...................
8 .............t......
9 ....................
0 ......f.............
1 ....................
2 ....................
3 ....................
4 ....................
5 ....................
6 ....................
7 ....................
8 ....................
9 ....................
0 ....................
1 ....................
2 ....................
3 ....................
4 ....................
5 ....................
6 ....................
7 ....................
8 ....................
9 ....................
0 ....................
1 ....................

*** Darwin 22x12 ***
Turn = 0.
  012345678901
0 ............
1 ............
2 ............
3 ...t........
4 ............
5 ............
6 ............
7 ............
8 ............
9 ............
0 ...t........
1 ............
2 ............
3 ............
4 ............
5 ............
6 ............
7 ............
8 ............
9 ............
0 ............
1 ..........r.

Turn = 2.
  012345678901
0 ............
1 ............
2 ............
3 ...t........
4 ............
5 ............
6 ............
7 ............
8 ............
9 ............
0 ...t........
1 ............
2 ............
3 ............
4 ............
5 ............
6 ............
7 ............
8 ............
9 ............
0 ............
1 ........r...

*** Darwin 10x25 ***
Turn = 0.
  0123456789012345678901234
0 ..t......................
1 .............t...........
2 .........................
3 .........................
4 .....f...................
5 ....................f....
6 .........................
7 .........................
8 ....................t....
9 .........................

Turn = 5.
  0123456789012345678901234
0 ..t......................
1 .............t...........
2 .........................
3 .........................
4 .....f...................
5 ....................f....
6 .........................
7 .........................
8 ....................t....
9 .........................

*** Darwin 19x20 ***
Turn = 0.
  01234567890123456789
0 ...............r....
1 ...................t
2 ....................
3 ....................
4 ....................
5 ....................
6 ....................
7 ....................
8 .......f............
9 ....................
0 ....................
1 ..............r.....
2 ....................
3 ....................
4 ....................
5 ....................
6 ....................
7 ....r.............t.
8 ....................

Turn = 2.
  01234567890123456789
0 ................r...
1 ...................t
2 ....................
3 ....................
4 ....................
5 ....................
6 ....................
7 ....................
8 .......f............
9 ....................
0 ....................
1 ....................
2 ....................
3 ..............r.....
4 ....................
5 ....r...............
6 ....................
7 ..................t.
8 ....................

Turn = 4.
  01234567890123456789
0 ..................r.
1 ...................t
2 ....................
3 ....................
4 ....................
5 ....................
6 ....................
7 ....................
8 .......f............
9 ....................
0 ....................
1 ....................
2 ....................
3 ....r...............
4 ....................
5 ..............r.....
6 ....................
7 ..................t.
8 ....................

*** Darwin 14x19 ***
Turn = 0.
  0123456789012345678
0 ...................
1 ...................
2 ...................
3 ...................
4 ...................
5 ...................
6 ...................
7 .................h.
8 ..............h....
9 r..................
0 ....r..............
1 ...................
2 ...................
3 ...................

Turn = 2.
  0123456789012345678
0 ...................
1 ...................
2 ...................
3 ...................
4 ...................
5 ...................
6 ...................
7 r..................
8 ....r...........h..
9 .................h.
0 ...................
1 ...................
2 ...................
3 ...................

Turn = 4.
  0123456789012345678
0 ...................
1 ...................
2 ...................
3 ...................
4 ...................
5 r..................
6 ....r..............
7 ...................
8 ..................h
9 ...................
0 ...................
1 .................h.
2 ...................
3 ...................

Turn = 6.
  0123456789012345678
0 ...................
1 ...................
2 ...................
3 r..................
4 ....r..............
5 ...................
6 ...................
7 ...................
8 ..................h
9 ...................
0 ...................
1 ...................
2 ...................
3 .................h.

*** Darwin 25x5 ***
Turn = 0.
  01234
0 .....
1 .....
2 .....
3 .....
4 h....
5 h....
6 .r...
7 ...t.
8 .....
9 h....
0 .h...
1 .....
2 ....r
3 .....
4 ...r.
5 .....
6 .....
7 .....
8 .....
9 .....
0 .....
1 ....t
2 .....
3 .....
4 .....

Turn = 2.
  01234
0 .....
1 .....
2 .....
3 .....
4 .....
5 h.h..
6 ...t.
7 h..t.
8 .....
9 .....
0 ...h.
1 .....
2 .....
3 ....r
4 .r...
5 .....
6 .....
7 .....
8 .....
9 .....
0 .....
1 ....t
2 .....
3 .....
4 .....

Turn = 4.
  01234
0 .....
1 .....
2 .....
3 .....
4 .....
5 ....h
6 h..t.
7 h..t.
8 .....
9 .....
0 ....h
1 .....
2 .....
3 .....
4 r....
5 ....r
6 .....
7 .....
8 .....
9 .....
0 .....
1 ....t
2 .....
3 .....
4 .....

Turn = 6.
  01234
0 .....
1 .....
2 .....
3 .....
4 .....
5 ....h
6 h..t.
7 h..t.
8 .....
9 .....
0 ....h
1 .....
2 .....
3 .....
4 .....
5 .....
6 r....
7 ....r
8 .....
9 .....
0 .....
1 ....t
2 .....
3 .....
4 .....

*** Darwin 10x12 ***
Turn = 0.
  012345678901
0 .........f..
1 ...t........
2 f...........
3 ............
4 ............
5 .....t..f...
6 ..........t.
7 ............
8 ............
9 ............

Turn = 3.
  012345678901
0 .........f..
1 ...t........
2 f...........
3 ............
4 ............
5 .....t..f...
6 ..........t.
7 ............
8 ............
9 ............
